VOC2012/JPEGImages/2007_000032.jpg	VOC2012/SegmentationClass/2007_000032.png	VOC2012/SegmentationObject/2007_000032.png
VOC2012/JPEGImages/2007_000039.jpg	VOC2012/SegmentationClass/2007_000039.png	VOC2012/SegmentationObject/2007_000039.png
VOC2012/JPEGImages/2007_000063.jpg	VOC2012/SegmentationClass/2007_000063.png	VOC2012/SegmentationObject/2007_000063.png
VOC2012/JPEGImages/2007_000068.jpg	VOC2012/SegmentationClass/2007_000068.png	VOC2012/SegmentationObject/2007_000068.png
VOC2012/JPEGImages/2007_000121.jpg	VOC2012/SegmentationClass/2007_000121.png	VOC2012/SegmentationObject/2007_000121.png
VOC2012/JPEGImages/2007_000170.jpg	VOC2012/SegmentationClass/2007_000170.png	VOC2012/SegmentationObject/2007_000170.png
VOC2012/JPEGImages/2007_000241.jpg	VOC2012/SegmentationClass/2007_000241.png	VOC2012/SegmentationObject/2007_000241.png
VOC2012/JPEGImages/2007_000243.jpg	VOC2012/SegmentationClass/2007_000243.png	VOC2012/SegmentationObject/2007_000243.png
VOC2012/JPEGImages/2007_000250.jpg	VOC2012/SegmentationClass/2007_000250.png	VOC2012/SegmentationObject/2007_000250.png
VOC2012/JPEGImages/2007_000256.jpg	VOC2012/SegmentationClass/2007_000256.png	VOC2012/SegmentationObject/2007_000256.png
VOC2012/JPEGImages/2007_000333.jpg	VOC2012/SegmentationClass/2007_000333.png	VOC2012/SegmentationObject/2007_000333.png
VOC2012/JPEGImages/2007_000363.jpg	VOC2012/SegmentationClass/2007_000363.png	VOC2012/SegmentationObject/2007_000363.png
VOC2012/JPEGImages/2007_000364.jpg	VOC2012/SegmentationClass/2007_000364.png	VOC2012/SegmentationObject/2007_000364.png
VOC2012/JPEGImages/2007_000392.jpg	VOC2012/SegmentationClass/2007_000392.png	VOC2012/SegmentationObject/2007_000392.png
VOC2012/JPEGImages/2007_000480.jpg	VOC2012/SegmentationClass/2007_000480.png	VOC2012/SegmentationObject/2007_000480.png
VOC2012/JPEGImages/2007_000504.jpg	VOC2012/SegmentationClass/2007_000504.png	VOC2012/SegmentationObject/2007_000504.png
VOC2012/JPEGImages/2007_000515.jpg	VOC2012/SegmentationClass/2007_000515.png	VOC2012/SegmentationObject/2007_000515.png
VOC2012/JPEGImages/2007_000528.jpg	VOC2012/SegmentationClass/2007_000528.png	VOC2012/SegmentationObject/2007_000528.png
VOC2012/JPEGImages/2007_000549.jpg	VOC2012/SegmentationClass/2007_000549.png	VOC2012/SegmentationObject/2007_000549.png
VOC2012/JPEGImages/2007_000584.jpg	VOC2012/SegmentationClass/2007_000584.png	VOC2012/SegmentationObject/2007_000584.png
VOC2012/JPEGImages/2007_000645.jpg	VOC2012/SegmentationClass/2007_000645.png	VOC2012/SegmentationObject/2007_000645.png
VOC2012/JPEGImages/2007_000648.jpg	VOC2012/SegmentationClass/2007_000648.png	VOC2012/SegmentationObject/2007_000648.png
VOC2012/JPEGImages/2007_000713.jpg	VOC2012/SegmentationClass/2007_000713.png	VOC2012/SegmentationObject/2007_000713.png
VOC2012/JPEGImages/2007_000720.jpg	VOC2012/SegmentationClass/2007_000720.png	VOC2012/SegmentationObject/2007_000720.png
VOC2012/JPEGImages/2007_000733.jpg	VOC2012/SegmentationClass/2007_000733.png	VOC2012/SegmentationObject/2007_000733.png
VOC2012/JPEGImages/2007_000738.jpg	VOC2012/SegmentationClass/2007_000738.png	VOC2012/SegmentationObject/2007_000738.png
VOC2012/JPEGImages/2007_000768.jpg	VOC2012/SegmentationClass/2007_000768.png	VOC2012/SegmentationObject/2007_000768.png
VOC2012/JPEGImages/2007_000793.jpg	VOC2012/SegmentationClass/2007_000793.png	VOC2012/SegmentationObject/2007_000793.png
VOC2012/JPEGImages/2007_000822.jpg	VOC2012/SegmentationClass/2007_000822.png	VOC2012/SegmentationObject/2007_000822.png
VOC2012/JPEGImages/2007_000836.jpg	VOC2012/SegmentationClass/2007_000836.png	VOC2012/SegmentationObject/2007_000836.png
VOC2012/JPEGImages/2007_000876.jpg	VOC2012/SegmentationClass/2007_000876.png	VOC2012/SegmentationObject/2007_000876.png
VOC2012/JPEGImages/2007_000904.jpg	VOC2012/SegmentationClass/2007_000904.png	VOC2012/SegmentationObject/2007_000904.png
VOC2012/JPEGImages/2007_001027.jpg	VOC2012/SegmentationClass/2007_001027.png	VOC2012/SegmentationObject/2007_001027.png
VOC2012/JPEGImages/2007_001073.jpg	VOC2012/SegmentationClass/2007_001073.png	VOC2012/SegmentationObject/2007_001073.png
VOC2012/JPEGImages/2007_001149.jpg	VOC2012/SegmentationClass/2007_001149.png	VOC2012/SegmentationObject/2007_001149.png
VOC2012/JPEGImages/2007_001185.jpg	VOC2012/SegmentationClass/2007_001185.png	VOC2012/SegmentationObject/2007_001185.png
VOC2012/JPEGImages/2007_001225.jpg	VOC2012/SegmentationClass/2007_001225.png	VOC2012/SegmentationObject/2007_001225.png
VOC2012/JPEGImages/2007_001340.jpg	VOC2012/SegmentationClass/2007_001340.png	VOC2012/SegmentationObject/2007_001340.png
VOC2012/JPEGImages/2007_001397.jpg	VOC2012/SegmentationClass/2007_001397.png	VOC2012/SegmentationObject/2007_001397.png
VOC2012/JPEGImages/2007_001416.jpg	VOC2012/SegmentationClass/2007_001416.png	VOC2012/SegmentationObject/2007_001416.png
VOC2012/JPEGImages/2007_001420.jpg	VOC2012/SegmentationClass/2007_001420.png	VOC2012/SegmentationObject/2007_001420.png
VOC2012/JPEGImages/2007_001439.jpg	VOC2012/SegmentationClass/2007_001439.png	VOC2012/SegmentationObject/2007_001439.png
VOC2012/JPEGImages/2007_001487.jpg	VOC2012/SegmentationClass/2007_001487.png	VOC2012/SegmentationObject/2007_001487.png
VOC2012/JPEGImages/2007_001595.jpg	VOC2012/SegmentationClass/2007_001595.png	VOC2012/SegmentationObject/2007_001595.png
VOC2012/JPEGImages/2007_001602.jpg	VOC2012/SegmentationClass/2007_001602.png	VOC2012/SegmentationObject/2007_001602.png
VOC2012/JPEGImages/2007_001609.jpg	VOC2012/SegmentationClass/2007_001609.png	VOC2012/SegmentationObject/2007_001609.png
VOC2012/JPEGImages/2007_001698.jpg	VOC2012/SegmentationClass/2007_001698.png	VOC2012/SegmentationObject/2007_001698.png
VOC2012/JPEGImages/2007_001704.jpg	VOC2012/SegmentationClass/2007_001704.png	VOC2012/SegmentationObject/2007_001704.png
VOC2012/JPEGImages/2007_001709.jpg	VOC2012/SegmentationClass/2007_001709.png	VOC2012/SegmentationObject/2007_001709.png
VOC2012/JPEGImages/2007_001724.jpg	VOC2012/SegmentationClass/2007_001724.png	VOC2012/SegmentationObject/2007_001724.png
VOC2012/JPEGImages/2007_001764.jpg	VOC2012/SegmentationClass/2007_001764.png	VOC2012/SegmentationObject/2007_001764.png
VOC2012/JPEGImages/2007_001825.jpg	VOC2012/SegmentationClass/2007_001825.png	VOC2012/SegmentationObject/2007_001825.png
VOC2012/JPEGImages/2007_001834.jpg	VOC2012/SegmentationClass/2007_001834.png	VOC2012/SegmentationObject/2007_001834.png
VOC2012/JPEGImages/2007_001857.jpg	VOC2012/SegmentationClass/2007_001857.png	VOC2012/SegmentationObject/2007_001857.png
VOC2012/JPEGImages/2007_001872.jpg	VOC2012/SegmentationClass/2007_001872.png	VOC2012/SegmentationObject/2007_001872.png
VOC2012/JPEGImages/2007_001901.jpg	VOC2012/SegmentationClass/2007_001901.png	VOC2012/SegmentationObject/2007_001901.png
VOC2012/JPEGImages/2007_001917.jpg	VOC2012/SegmentationClass/2007_001917.png	VOC2012/SegmentationObject/2007_001917.png
VOC2012/JPEGImages/2007_001960.jpg	VOC2012/SegmentationClass/2007_001960.png	VOC2012/SegmentationObject/2007_001960.png
VOC2012/JPEGImages/2007_002024.jpg	VOC2012/SegmentationClass/2007_002024.png	VOC2012/SegmentationObject/2007_002024.png
VOC2012/JPEGImages/2007_002055.jpg	VOC2012/SegmentationClass/2007_002055.png	VOC2012/SegmentationObject/2007_002055.png
VOC2012/JPEGImages/2007_002088.jpg	VOC2012/SegmentationClass/2007_002088.png	VOC2012/SegmentationObject/2007_002088.png
VOC2012/JPEGImages/2007_002099.jpg	VOC2012/SegmentationClass/2007_002099.png	VOC2012/SegmentationObject/2007_002099.png
VOC2012/JPEGImages/2007_002105.jpg	VOC2012/SegmentationClass/2007_002105.png	VOC2012/SegmentationObject/2007_002105.png
VOC2012/JPEGImages/2007_002107.jpg	VOC2012/SegmentationClass/2007_002107.png	VOC2012/SegmentationObject/2007_002107.png
VOC2012/JPEGImages/2007_002120.jpg	VOC2012/SegmentationClass/2007_002120.png	VOC2012/SegmentationObject/2007_002120.png
VOC2012/JPEGImages/2007_002142.jpg	VOC2012/SegmentationClass/2007_002142.png	VOC2012/SegmentationObject/2007_002142.png
VOC2012/JPEGImages/2007_002198.jpg	VOC2012/SegmentationClass/2007_002198.png	VOC2012/SegmentationObject/2007_002198.png
VOC2012/JPEGImages/2007_002212.jpg	VOC2012/SegmentationClass/2007_002212.png	VOC2012/SegmentationObject/2007_002212.png
VOC2012/JPEGImages/2007_002216.jpg	VOC2012/SegmentationClass/2007_002216.png	VOC2012/SegmentationObject/2007_002216.png
VOC2012/JPEGImages/2007_002227.jpg	VOC2012/SegmentationClass/2007_002227.png	VOC2012/SegmentationObject/2007_002227.png
VOC2012/JPEGImages/2007_002234.jpg	VOC2012/SegmentationClass/2007_002234.png	VOC2012/SegmentationObject/2007_002234.png
VOC2012/JPEGImages/2007_002273.jpg	VOC2012/SegmentationClass/2007_002273.png	VOC2012/SegmentationObject/2007_002273.png
VOC2012/JPEGImages/2007_002281.jpg	VOC2012/SegmentationClass/2007_002281.png	VOC2012/SegmentationObject/2007_002281.png
VOC2012/JPEGImages/2007_002293.jpg	VOC2012/SegmentationClass/2007_002293.png	VOC2012/SegmentationObject/2007_002293.png
VOC2012/JPEGImages/2007_002361.jpg	VOC2012/SegmentationClass/2007_002361.png	VOC2012/SegmentationObject/2007_002361.png
VOC2012/JPEGImages/2007_002368.jpg	VOC2012/SegmentationClass/2007_002368.png	VOC2012/SegmentationObject/2007_002368.png
VOC2012/JPEGImages/2007_002370.jpg	VOC2012/SegmentationClass/2007_002370.png	VOC2012/SegmentationObject/2007_002370.png
VOC2012/JPEGImages/2007_002403.jpg	VOC2012/SegmentationClass/2007_002403.png	VOC2012/SegmentationObject/2007_002403.png
VOC2012/JPEGImages/2007_002462.jpg	VOC2012/SegmentationClass/2007_002462.png	VOC2012/SegmentationObject/2007_002462.png
VOC2012/JPEGImages/2007_002488.jpg	VOC2012/SegmentationClass/2007_002488.png	VOC2012/SegmentationObject/2007_002488.png
VOC2012/JPEGImages/2007_002545.jpg	VOC2012/SegmentationClass/2007_002545.png	VOC2012/SegmentationObject/2007_002545.png
VOC2012/JPEGImages/2007_002611.jpg	VOC2012/SegmentationClass/2007_002611.png	VOC2012/SegmentationObject/2007_002611.png
VOC2012/JPEGImages/2007_002639.jpg	VOC2012/SegmentationClass/2007_002639.png	VOC2012/SegmentationObject/2007_002639.png
VOC2012/JPEGImages/2007_002668.jpg	VOC2012/SegmentationClass/2007_002668.png	VOC2012/SegmentationObject/2007_002668.png
VOC2012/JPEGImages/2007_002669.jpg	VOC2012/SegmentationClass/2007_002669.png	VOC2012/SegmentationObject/2007_002669.png
VOC2012/JPEGImages/2007_002760.jpg	VOC2012/SegmentationClass/2007_002760.png	VOC2012/SegmentationObject/2007_002760.png
VOC2012/JPEGImages/2007_002789.jpg	VOC2012/SegmentationClass/2007_002789.png	VOC2012/SegmentationObject/2007_002789.png
VOC2012/JPEGImages/2007_002845.jpg	VOC2012/SegmentationClass/2007_002845.png	VOC2012/SegmentationObject/2007_002845.png
VOC2012/JPEGImages/2007_002895.jpg	VOC2012/SegmentationClass/2007_002895.png	VOC2012/SegmentationObject/2007_002895.png
VOC2012/JPEGImages/2007_002896.jpg	VOC2012/SegmentationClass/2007_002896.png	VOC2012/SegmentationObject/2007_002896.png
VOC2012/JPEGImages/2007_002914.jpg	VOC2012/SegmentationClass/2007_002914.png	VOC2012/SegmentationObject/2007_002914.png
VOC2012/JPEGImages/2007_002953.jpg	VOC2012/SegmentationClass/2007_002953.png	VOC2012/SegmentationObject/2007_002953.png
VOC2012/JPEGImages/2007_002954.jpg	VOC2012/SegmentationClass/2007_002954.png	VOC2012/SegmentationObject/2007_002954.png
VOC2012/JPEGImages/2007_002967.jpg	VOC2012/SegmentationClass/2007_002967.png	VOC2012/SegmentationObject/2007_002967.png
VOC2012/JPEGImages/2007_003000.jpg	VOC2012/SegmentationClass/2007_003000.png	VOC2012/SegmentationObject/2007_003000.png
VOC2012/JPEGImages/2007_003118.jpg	VOC2012/SegmentationClass/2007_003118.png	VOC2012/SegmentationObject/2007_003118.png
VOC2012/JPEGImages/2007_003178.jpg	VOC2012/SegmentationClass/2007_003178.png	VOC2012/SegmentationObject/2007_003178.png
VOC2012/JPEGImages/2007_003189.jpg	VOC2012/SegmentationClass/2007_003189.png	VOC2012/SegmentationObject/2007_003189.png
VOC2012/JPEGImages/2007_003190.jpg	VOC2012/SegmentationClass/2007_003190.png	VOC2012/SegmentationObject/2007_003190.png
VOC2012/JPEGImages/2007_003191.jpg	VOC2012/SegmentationClass/2007_003191.png	VOC2012/SegmentationObject/2007_003191.png
VOC2012/JPEGImages/2007_003205.jpg	VOC2012/SegmentationClass/2007_003205.png	VOC2012/SegmentationObject/2007_003205.png
VOC2012/JPEGImages/2007_003207.jpg	VOC2012/SegmentationClass/2007_003207.png	VOC2012/SegmentationObject/2007_003207.png
VOC2012/JPEGImages/2007_003251.jpg	VOC2012/SegmentationClass/2007_003251.png	VOC2012/SegmentationObject/2007_003251.png
VOC2012/JPEGImages/2007_003267.jpg	VOC2012/SegmentationClass/2007_003267.png	VOC2012/SegmentationObject/2007_003267.png
VOC2012/JPEGImages/2007_003286.jpg	VOC2012/SegmentationClass/2007_003286.png	VOC2012/SegmentationObject/2007_003286.png
VOC2012/JPEGImages/2007_003330.jpg	VOC2012/SegmentationClass/2007_003330.png	VOC2012/SegmentationObject/2007_003330.png
VOC2012/JPEGImages/2007_003431.jpg	VOC2012/SegmentationClass/2007_003431.png	VOC2012/SegmentationObject/2007_003431.png
VOC2012/JPEGImages/2007_003451.jpg	VOC2012/SegmentationClass/2007_003451.png	VOC2012/SegmentationObject/2007_003451.png
VOC2012/JPEGImages/2007_003525.jpg	VOC2012/SegmentationClass/2007_003525.png	VOC2012/SegmentationObject/2007_003525.png
VOC2012/JPEGImages/2007_003529.jpg	VOC2012/SegmentationClass/2007_003529.png	VOC2012/SegmentationObject/2007_003529.png
VOC2012/JPEGImages/2007_003541.jpg	VOC2012/SegmentationClass/2007_003541.png	VOC2012/SegmentationObject/2007_003541.png
VOC2012/JPEGImages/2007_003565.jpg	VOC2012/SegmentationClass/2007_003565.png	VOC2012/SegmentationObject/2007_003565.png
VOC2012/JPEGImages/2007_003580.jpg	VOC2012/SegmentationClass/2007_003580.png	VOC2012/SegmentationObject/2007_003580.png
VOC2012/JPEGImages/2007_003593.jpg	VOC2012/SegmentationClass/2007_003593.png	VOC2012/SegmentationObject/2007_003593.png
VOC2012/JPEGImages/2007_003604.jpg	VOC2012/SegmentationClass/2007_003604.png	VOC2012/SegmentationObject/2007_003604.png
VOC2012/JPEGImages/2007_003668.jpg	VOC2012/SegmentationClass/2007_003668.png	VOC2012/SegmentationObject/2007_003668.png
VOC2012/JPEGImages/2007_003715.jpg	VOC2012/SegmentationClass/2007_003715.png	VOC2012/SegmentationObject/2007_003715.png
VOC2012/JPEGImages/2007_003778.jpg	VOC2012/SegmentationClass/2007_003778.png	VOC2012/SegmentationObject/2007_003778.png
VOC2012/JPEGImages/2007_003788.jpg	VOC2012/SegmentationClass/2007_003788.png	VOC2012/SegmentationObject/2007_003788.png
VOC2012/JPEGImages/2007_003815.jpg	VOC2012/SegmentationClass/2007_003815.png	VOC2012/SegmentationObject/2007_003815.png
VOC2012/JPEGImages/2007_003876.jpg	VOC2012/SegmentationClass/2007_003876.png	VOC2012/SegmentationObject/2007_003876.png
VOC2012/JPEGImages/2007_003889.jpg	VOC2012/SegmentationClass/2007_003889.png	VOC2012/SegmentationObject/2007_003889.png
VOC2012/JPEGImages/2007_003910.jpg	VOC2012/SegmentationClass/2007_003910.png	VOC2012/SegmentationObject/2007_003910.png
VOC2012/JPEGImages/2007_004003.jpg	VOC2012/SegmentationClass/2007_004003.png	VOC2012/SegmentationObject/2007_004003.png
VOC2012/JPEGImages/2007_004009.jpg	VOC2012/SegmentationClass/2007_004009.png	VOC2012/SegmentationObject/2007_004009.png
VOC2012/JPEGImages/2007_004065.jpg	VOC2012/SegmentationClass/2007_004065.png	VOC2012/SegmentationObject/2007_004065.png
VOC2012/JPEGImages/2007_004081.jpg	VOC2012/SegmentationClass/2007_004081.png	VOC2012/SegmentationObject/2007_004081.png
VOC2012/JPEGImages/2007_004166.jpg	VOC2012/SegmentationClass/2007_004166.png	VOC2012/SegmentationObject/2007_004166.png
VOC2012/JPEGImages/2007_004289.jpg	VOC2012/SegmentationClass/2007_004289.png	VOC2012/SegmentationObject/2007_004289.png
VOC2012/JPEGImages/2007_004291.jpg	VOC2012/SegmentationClass/2007_004291.png	VOC2012/SegmentationObject/2007_004291.png
VOC2012/JPEGImages/2007_004328.jpg	VOC2012/SegmentationClass/2007_004328.png	VOC2012/SegmentationObject/2007_004328.png
VOC2012/JPEGImages/2007_004423.jpg	VOC2012/SegmentationClass/2007_004423.png	VOC2012/SegmentationObject/2007_004423.png
VOC2012/JPEGImages/2007_004459.jpg	VOC2012/SegmentationClass/2007_004459.png	VOC2012/SegmentationObject/2007_004459.png
VOC2012/JPEGImages/2007_004476.jpg	VOC2012/SegmentationClass/2007_004476.png	VOC2012/SegmentationObject/2007_004476.png
VOC2012/JPEGImages/2007_004481.jpg	VOC2012/SegmentationClass/2007_004481.png	VOC2012/SegmentationObject/2007_004481.png
VOC2012/JPEGImages/2007_004500.jpg	VOC2012/SegmentationClass/2007_004500.png	VOC2012/SegmentationObject/2007_004500.png
VOC2012/JPEGImages/2007_004537.jpg	VOC2012/SegmentationClass/2007_004537.png	VOC2012/SegmentationObject/2007_004537.png
VOC2012/JPEGImages/2007_004627.jpg	VOC2012/SegmentationClass/2007_004627.png	VOC2012/SegmentationObject/2007_004627.png
VOC2012/JPEGImages/2007_004663.jpg	VOC2012/SegmentationClass/2007_004663.png	VOC2012/SegmentationObject/2007_004663.png
VOC2012/JPEGImages/2007_004705.jpg	VOC2012/SegmentationClass/2007_004705.png	VOC2012/SegmentationObject/2007_004705.png
VOC2012/JPEGImages/2007_004707.jpg	VOC2012/SegmentationClass/2007_004707.png	VOC2012/SegmentationObject/2007_004707.png
VOC2012/JPEGImages/2007_004768.jpg	VOC2012/SegmentationClass/2007_004768.png	VOC2012/SegmentationObject/2007_004768.png
VOC2012/JPEGImages/2007_004769.jpg	VOC2012/SegmentationClass/2007_004769.png	VOC2012/SegmentationObject/2007_004769.png
VOC2012/JPEGImages/2007_004810.jpg	VOC2012/SegmentationClass/2007_004810.png	VOC2012/SegmentationObject/2007_004810.png
VOC2012/JPEGImages/2007_004830.jpg	VOC2012/SegmentationClass/2007_004830.png	VOC2012/SegmentationObject/2007_004830.png
VOC2012/JPEGImages/2007_004841.jpg	VOC2012/SegmentationClass/2007_004841.png	VOC2012/SegmentationObject/2007_004841.png
VOC2012/JPEGImages/2007_004948.jpg	VOC2012/SegmentationClass/2007_004948.png	VOC2012/SegmentationObject/2007_004948.png
VOC2012/JPEGImages/2007_004951.jpg	VOC2012/SegmentationClass/2007_004951.png	VOC2012/SegmentationObject/2007_004951.png
VOC2012/JPEGImages/2007_004988.jpg	VOC2012/SegmentationClass/2007_004988.png	VOC2012/SegmentationObject/2007_004988.png
VOC2012/JPEGImages/2007_004998.jpg	VOC2012/SegmentationClass/2007_004998.png	VOC2012/SegmentationObject/2007_004998.png
VOC2012/JPEGImages/2007_005043.jpg	VOC2012/SegmentationClass/2007_005043.png	VOC2012/SegmentationObject/2007_005043.png
VOC2012/JPEGImages/2007_005064.jpg	VOC2012/SegmentationClass/2007_005064.png	VOC2012/SegmentationObject/2007_005064.png
VOC2012/JPEGImages/2007_005086.jpg	VOC2012/SegmentationClass/2007_005086.png	VOC2012/SegmentationObject/2007_005086.png
VOC2012/JPEGImages/2007_005124.jpg	VOC2012/SegmentationClass/2007_005124.png	VOC2012/SegmentationObject/2007_005124.png
VOC2012/JPEGImages/2007_005130.jpg	VOC2012/SegmentationClass/2007_005130.png	VOC2012/SegmentationObject/2007_005130.png
VOC2012/JPEGImages/2007_005144.jpg	VOC2012/SegmentationClass/2007_005144.png	VOC2012/SegmentationObject/2007_005144.png
VOC2012/JPEGImages/2007_005210.jpg	VOC2012/SegmentationClass/2007_005210.png	VOC2012/SegmentationObject/2007_005210.png
VOC2012/JPEGImages/2007_005212.jpg	VOC2012/SegmentationClass/2007_005212.png	VOC2012/SegmentationObject/2007_005212.png
VOC2012/JPEGImages/2007_005227.jpg	VOC2012/SegmentationClass/2007_005227.png	VOC2012/SegmentationObject/2007_005227.png
